start fight
win count:   1 0
spent time:  0.256948 2.908298
total time:  3.19385
win count:   1 1
spent time:  0.440181 0.254153
total time:  0.720962
win count:   2 1
spent time:  0.256627 2.902615
total time:  3.187682
win count:   2 2
spent time:  0.490774 0.143214
total time:  0.660512
win count:   2 3
spent time:  0.102062 0.375108
total time:  0.504255
win count:   2 4
spent time:  0.473093 0.074033
total time:  0.574176
win count:   2 5
spent time:  0.102295 0.376607
total time:  0.506064
win count:   2 6
spent time:  0.529431 0.420906
total time:  0.976789
win count:   2 7
spent time:  0.426015 0.774729
total time:  1.229163
win count:   2 8
spent time:  1.701803 1.34115
total time:  3.069834
win count:   2 9
spent time:  0.101944 0.375345
total time:  0.504271
win count:   2 10
spent time:  0.472495 0.087131
total time:  0.58624
win count:   3 10
spent time:  1.313207 2.109963
total time:  3.450391
win count:   3 11
spent time:  0.490957 0.135623
total time:  0.653979
win count:   3 12
spent time:  0.102448 0.378656
total time:  0.508417
win count:   4 12
spent time:  0.952725 0.722018
total time:  1.701473
win count:   4 13
spent time:  0.105735 0.387061
total time:  0.520673
win count:   5 13
spent time:  0.892432 0.504067
total time:  1.423271
win count:   6 13
spent time:  0.260264 2.937316
total time:  3.22622
win count:   6 14
spent time:  0.490731 0.135167
total time:  0.653043
win count:   7 14
spent time:  0.266159 3.01408
total time:  3.309429
win count:   7 15
spent time:  1.622137 1.251269
total time:  2.901009
win count:   8 15
spent time:  0.265512 2.981386
total time:  3.275293
win count:   8 16
spent time:  0.459191 0.265371
total time:  0.752161
win count:   9 16
spent time:  1.357061 2.184881
total time:  3.570248
win count:   9 17
spent time:  0.675097 0.184913
total time:  0.888343
win count:   9 18
spent time:  0.10655 0.392123
total time:  0.526901
win count:   9 19
spent time:  0.516288 0.929641
total time:  1.473843
win count:   9 20
spent time:  0.137793 0.495618
total time:  0.66279
win count:   9 21
spent time:  0.493636 0.077281
total time:  0.598993
win count:   9 22
spent time:  0.338836 0.699478
total time:  1.067913
win count:   9 23
spent time:  0.675416 0.184932
total time:  0.888696
win count:   9 24
spent time:  0.338557 0.698065
total time:  1.066093
win count:   9 25
spent time:  0.458341 0.264827
total time:  0.750653
win count:   9 26
spent time:  0.106403 0.392322
total time:  0.526973
win count:   9 27
spent time:  0.675238 0.18593
total time:  0.889365
win count:   10 27
spent time:  0.267409 3.030771
total time:  3.327743
win count:   10 28
spent time:  0.461478 0.073804
total time:  0.563209
win count:   11 28
spent time:  1.355855 2.180615
total time:  3.564552
win count:   11 29
spent time:  0.494197 0.077357
total time:  0.599619
win count:   12 29
spent time:  0.267421 3.028346
total time:  3.325228
win count:   12 30
spent time:  1.63383 1.260583
total time:  2.922212
win count:   12 31
spent time:  0.137571 0.495851
total time:  0.662759
win count:   12 32
spent time:  0.673998 0.184638
total time:  0.886859
win count:   12 33
spent time:  0.137441 0.494608
total time:  0.661307
win count:   12 34
spent time:  0.412625 0.073114
total time:  0.51324
win count:   12 35
spent time:  0.325218 1.179544
total time:  1.533414
win count:   12 36
spent time:  1.776762 1.399854
total time:  3.204463
win count:   12 37
spent time:  0.338305 0.699258
total time:  1.06703
win count:   12 38
spent time:  0.420935 0.079614
total time:  0.528317
win count:   12 39
spent time:  0.338085 0.698725
total time:  1.066263
win count:   12 40
spent time:  0.510954 0.821821
total time:  1.360263
win count:   12 41
spent time:  0.241437 0.620999
total time:  0.891343
win count:   12 42
spent time:  0.673717 0.184732
total time:  0.886638
win count:   12 43
spent time:  0.338085 0.698878
total time:  1.066413
win count:   12 44
spent time:  0.49353 0.077383
total time:  0.598983
win count:   13 44
spent time:  0.267619 3.029321
total time:  3.32643
win count:   13 45
spent time:  0.468153 0.165517
total time:  0.660811
win count:   13 46
spent time:  0.097966 0.461976
total time:  0.589121
win count:   13 47
spent time:  0.574472 0.075068
total time:  0.677556
win count:   13 48
spent time:  0.299956 0.707224
total time:  1.036244
win count:   13 49
spent time:  0.51543 0.928783
total time:  1.47192
win count:   13 50
spent time:  0.102144 0.876724
total time:  1.008061
win count:   14 50
spent time:  0.920188 0.520526
total time:  1.468038
win count:   14 51
spent time:  0.325042 1.177531
total time:  1.53119
win count:   14 52
spent time:  0.493227 0.077259
total time:  0.598513
win count:   14 53
spent time:  0.106559 0.392461
total time:  0.527215
win count:   14 54
spent time:  0.575527 0.075052
total time:  0.678615
win count:   15 54
spent time:  0.267978 3.030008
total time:  3.327463
win count:   15 55
spent time:  0.707857 0.645472
total time:  1.380846
win count:   15 56
spent time:  0.106499 0.391962
total time:  0.526662
win count:   15 57
spent time:  0.572759 0.074911
total time:  0.675624
win count:   16 57
spent time:  0.267419 3.030078
total time:  3.32697
win count:   17 57
spent time:  0.984763 0.747071
total time:  1.759095
win count:   17 58
spent time:  0.097849 0.461749
total time:  0.588677
win count:   18 58
spent time:  1.599804 1.760121
total time:  3.387399
win count:   19 58
spent time:  0.267523 3.030363
total time:  3.327372
win count:   19 59
spent time:  0.42204 0.07965
total time:  0.529541
win count:   19 60
spent time:  0.106499 0.392458
total time:  0.527127
win count:   19 61
spent time:  0.674198 0.184765
total time:  0.887207
win count:   20 61
spent time:  0.267624 3.028857
total time:  3.326002
win count:   20 62
spent time:  0.674575 0.184589
total time:  0.887396
win count:   20 63
spent time:  0.106608 0.392974
total time:  0.527809
win count:   20 64
spent time:  0.674883 0.18464
total time:  0.887742
win count:   20 65
spent time:  0.106298 0.39194
total time:  0.526456
win count:   20 66
spent time:  0.438149 0.116118
total time:  0.581572
win count:   20 67
spent time:  0.137341 0.495741
total time:  0.662403
win count:   20 68
spent time:  0.42139 0.07961
total time:  0.528781
win count:   21 68
spent time:  0.267319 3.029864
total time:  3.326726
win count:   21 69
spent time:  0.467694 0.067782
total time:  0.563088
win count:   21 70
spent time:  0.299144 0.705953
total time:  1.034029
win count:   21 71
spent time:  0.46227 0.073792
total time:  0.56406
win count:   21 72
spent time:  0.106503 0.392547
total time:  0.527354
win count:   21 73
spent time:  0.674127 0.184488
total time:  0.886854
win count:   21 74
spent time:  0.137413 0.49613
total time:  0.662917
win count:   21 75
spent time:  0.468796 0.165272
total time:  0.661155
win count:   22 75
spent time:  1.355768 2.184741
total time:  3.568633
win count:   22 76
spent time:  0.674982 0.184853
total time:  0.888147
win count:   23 76
spent time:  1.355549 2.183879
total time:  3.567564
win count:   23 77
spent time:  0.421598 0.0795980000001
total time:  0.528915
ALLtotal time:  138.755452
