start fight
win count:   1 0
spent time:  8.941703 9.228963
total time:  18.200833
win count:   1 1
spent time:  5.742131 6.313188
total time:  12.079797
win count:   1 2
spent time:  9.807319 14.833045
total time:  24.669595
win count:   1 3
spent time:  7.514493 7.9338
total time:  15.47724
win count:   1 4
spent time:  7.926017 14.151393
total time:  22.103999
win count:   1 5
spent time:  7.335779 8.016953
total time:  15.384803
win count:   2 5
spent time:  9.180091 10.081033
total time:  19.289458
win count:   2 6
spent time:  6.452833 7.045134
total time:  13.526539
win count:   3 6
spent time:  9.975709 10.715641
total time:  20.719542
win count:   4 6
spent time:  7.023412 7.007861
total time:  14.055958
win count:   4 7
spent time:  8.8032 13.758698
total time:  22.587939
win count:   5 7
spent time:  7.426453 7.16362
total time:  14.616145
win count:   6 7
spent time:  8.912677 9.341423
total time:  18.284609
win count:   6 8
spent time:  7.194772 7.580553
total time:  14.802932
win count:   6 9
spent time:  7.881442 14.638056
total time:  22.545819
win count:   7 9
spent time:  7.62564 7.54182
total time:  15.197435
win count:   7 10
spent time:  9.506269 13.949347
total time:  23.482782
win count:   7 11
spent time:  5.780668 6.583887
total time:  12.39054
win count:   7 12
spent time:  9.373402 14.216513
total time:  23.622918
win count:   7 13
spent time:  6.975309 7.936525
total time:  14.939562
win count:   7 14
spent time:  7.898384 15.983463
total time:  23.90872
win count:   8 14
spent time:  7.081111 7.110184
total time:  14.22012
win count:   9 14
spent time:  10.302331 10.258918
total time:  20.588913
win count:   9 15
spent time:  5.749744 6.30994
total time:  12.084177
win count:   9 16
spent time:  7.194772 8.558946
total time:  15.783929
win count:   9 17
spent time:  5.692887 6.268102
total time:  11.985187
win count:   9 18
spent time:  10.297751 14.744734
total time:  25.070509
win count:   9 19
spent time:  5.707553 6.270475
total time:  12.002347
win count:   9 20
spent time:  7.494273 7.86197
total time:  15.386552
win count:   10 20
spent time:  7.096314 7.060332
total time:  14.182433
win count:   10 21
spent time:  7.366823 8.474261
total time:  15.875304
win count:   10 22
spent time:  5.708386 6.271086
total time:  12.003765
win count:   11 22
spent time:  10.428122 11.275483
total time:  21.733265
win count:   12 22
spent time:  7.52441 7.409433
total time:  14.959778
win count:   12 23
spent time:  7.212306 7.583096
total time:  14.829005
win count:   13 23
spent time:  6.976237 6.97308
total time:  13.973747
win count:   14 23
spent time:  7.972578 8.111558
total time:  16.111574
win count:   14 24
spent time:  5.731425 6.296562
total time:  12.052568
win count:   15 24
spent time:  8.057537 8.120214
total time:  16.204751
win count:   16 24
spent time:  8.155187 8.484583
total time:  16.667462
win count:   17 24
spent time:  5.01411 5.993287
total time:  11.031798
win count:   17 25
spent time:  6.98942 7.832705
total time:  14.852046
win count:   18 25
spent time:  8.107635 8.606215
total time:  16.742408
win count:   18 26
spent time:  6.86255 7.92598
total time:  14.816421
win count:   18 27
spent time:  5.663679 6.055217
total time:  11.743728
win count:   19 27
spent time:  8.760555 8.809431
total time:  17.599402
win count:   19 28
spent time:  7.928298 15.993987
total time:  23.948146
win count:   20 28
spent time:  7.030286 7.023006
total time:  14.078424
win count:   20 29
spent time:  9.735548 14.580324
total time:  24.34309
win count:   20 30
spent time:  6.201708 7.10998
total time:  13.338995
win count:   20 31
spent time:  6.703168 7.533292
total time:  14.268796
win count:   20 32
spent time:  5.730729 6.297099
total time:  12.052306
win count:   21 32
spent time:  10.293679 11.058553
total time:  21.3821
win count:   22 32
spent time:  8.364035 8.259114
total time:  16.651268
win count:   22 33
spent time:  8.636057 13.579622
total time:  22.246412
win count:   23 33
spent time:  8.922598 9.167184
total time:  18.119081
win count:   24 33
spent time:  8.988784 10.059708
total time:  19.076735
win count:   25 33
spent time:  8.253545 7.996625
total time:  16.281124
win count:   25 34
spent time:  10.054082 15.703505
total time:  25.786514
win count:   25 35
spent time:  5.706113 6.269277
total time:  11.999663
win count:   26 35
spent time:  10.277991 11.039176
total time:  21.345292
win count:   27 35
spent time:  7.013312 7.007214
total time:  14.045135
win count:   27 36
spent time:  8.772772 13.700283
total time:  22.499132
win count:   27 37
spent time:  6.632619 7.304416
total time:  13.964511
win count:   27 38
spent time:  5.677959 6.069874
total time:  11.772655
win count:   27 39
spent time:  7.169514 7.731378
total time:  14.92949
win count:   27 40
spent time:  5.333626 6.041908
total time:  11.400113
win count:   27 41
spent time:  6.956878 7.716005
total time:  14.701257
win count:   27 42
spent time:  7.86104 13.250696
total time:  21.13799
win count:   27 43
spent time:  6.981555 7.27631
total time:  14.288824
win count:   27 44
spent time:  9.421526 14.482359
total time:  23.931618
win count:   28 44
spent time:  6.978376 6.967168
total time:  13.97006
win count:   28 45
spent time:  9.481715 14.455027
total time:  23.965691
win count:   28 46
spent time:  7.641733 8.171593
total time:  15.842867
win count:   28 47
spent time:  5.524437 6.077943
total time:  11.627028
win count:   28 48
spent time:  7.411961 8.312247
total time:  15.753497
win count:   28 49
spent time:  5.585118 6.151736
total time:  11.761953
win count:   28 50
spent time:  6.741998 7.698921
total time:  14.470263
win count:   28 51
spent time:  9.204072 13.999307
total time:  23.235587
win count:   28 52
spent time:  7.827163 8.652194
total time:  16.509955
win count:   29 52
spent time:  8.117264 8.560888
total time:  16.70282
win count:   30 52
spent time:  8.802591 8.933975
total time:  17.765671
win count:   30 53
spent time:  5.609229 6.20249
total time:  11.838645
win count:   30 54
spent time:  8.262649 8.779538
total time:  17.076446
win count:   30 55
spent time:  5.556419 6.117665
total time:  11.698986
win count:   31 55
spent time:  9.587875 10.019829
total time:  19.639422
win count:   31 56
spent time:  5.699534 6.091098
total time:  11.815588
win count:   31 57
spent time:  7.951099 8.626944
total time:  16.609931
win count:   32 57
spent time:  8.189328 8.61722
total time:  16.835299
win count:   32 58
spent time:  6.431555 7.358241
total time:  13.817945
win count:   33 58
spent time:  8.127465 8.605237
total time:  16.761319
win count:   34 58
spent time:  7.826782 8.17831
total time:  16.032499
win count:   35 58
spent time:  7.831279 8.030956
total time:  15.890954
win count:   35 59
spent time:  5.779942 6.404928
total time:  12.213502
win count:   35 60
spent time:  6.495777 7.182687
total time:  13.707737
win count:   35 61
spent time:  6.016912 6.620496
total time:  12.666714
win count:   35 62
spent time:  8.588053 13.611054
total time:  22.225122
win count:   36 62
spent time:  7.819867 7.965781
total time:  15.812186
win count:   37 62
spent time:  6.955817 7.1595
total time:  14.140086
win count:   38 62
spent time:  8.021466 7.745661
total time:  15.793786
ALLtotal time:  1658.158946
