start fight
win count:   1 0
spent time:  1.641757 4.101479
total time:  5.768201
win count:   2 0
spent time:  1.383211 1.265936
total time:  2.673447
win count:   3 0
spent time:  1.766588 4.260281
total time:  6.051883
win count:   4 0
spent time:  1.747855 3.406538
total time:  5.178823
win count:   4 1
spent time:  0.485346 0.450068
total time:  0.959788
win count:   5 1
spent time:  1.75844 3.418505
total time:  5.201416
win count:   6 1
spent time:  1.609077 4.081749
total time:  5.715716
win count:   7 1
spent time:  1.753052 3.412057
total time:  5.189611
win count:   8 1
spent time:  1.607325 4.083789
total time:  5.716048
win count:   9 1
spent time:  1.555384 1.553107
total time:  3.133264
win count:   9 2
spent time:  0.492601 0.453493
total time:  0.970725
win count:   10 2
spent time:  1.389403 1.263515
total time:  2.677197
win count:   10 3
spent time:  0.486201 0.449446
total time:  0.960014
win count:   11 3
spent time:  1.757984 3.422257
total time:  5.205042
win count:   12 3
spent time:  0.83459 2.216084
total time:  3.075181
win count:   13 3
spent time:  1.763756 3.419127
total time:  5.207813
win count:   14 3
spent time:  1.612967 4.084628
total time:  5.722427
win count:   15 3
spent time:  1.773775 3.424293
total time:  5.222556
win count:   16 3
spent time:  1.621652 4.092808
total time:  5.739304
win count:   17 3
spent time:  1.381773 1.266098
total time:  2.672226
win count:   17 4
spent time:  0.486236 0.450372
total time:  0.96099
win count:   18 4
spent time:  1.743818 3.413605
total time:  5.182013
win count:   19 4
spent time:  0.832582 2.201841
total time:  3.058817
win count:   20 4
spent time:  1.730982 3.463187
total time:  5.218527
win count:   21 4
spent time:  0.831604 2.238606
total time:  3.094587
win count:   22 4
spent time:  1.75185 3.443527
total time:  5.220488
win count:   22 5
spent time:  0.567453 0.530101
total time:  1.121793
win count:   23 5
spent time:  1.361247 1.252758
total time:  2.638372
win count:   23 6
spent time:  0.571558 0.532023
total time:  1.127864
win count:   24 6
spent time:  1.719625 3.352962
total time:  5.096541
win count:   25 6
spent time:  1.582321 4.008777
total time:  5.615998
win count:   26 6
spent time:  1.373529 1.247187
total time:  2.644854
win count:   27 6
spent time:  1.59092 4.047009
total time:  5.663173
win count:   28 6
spent time:  1.739588 3.343684
total time:  5.107318
win count:   29 6
spent time:  0.827037 2.178681
total time:  3.030107
win count:   30 6
spent time:  1.731784 3.406701
total time:  5.162397
win count:   30 7
spent time:  0.476603 0.442356
total time:  0.942957
win count:   31 7
spent time:  1.364996 1.25048
total time:  2.640072
win count:   32 7
spent time:  1.577365 3.982327
total time:  5.584105
win count:   33 7
spent time:  1.345365 1.23372
total time:  2.602923
win count:   34 7
spent time:  1.585935 3.995083
total time:  5.60539
win count:   35 7
spent time:  1.360908 1.254628
total time:  2.639752
win count:   35 8
spent time:  0.567346 0.526595
total time:  1.117991
win count:   36 8
spent time:  1.702432 3.312865
total time:  5.03956
win count:   37 8
spent time:  1.561644 3.95306
total time:  5.539374
win count:   38 8
spent time:  1.32253 1.211373
total time:  2.557843
win count:   39 8
spent time:  1.551487 3.945863
total time:  5.521531
win count:   40 8
spent time:  1.334236 1.223922
total time:  2.582145
win count:   40 9
spent time:  0.557844 0.517082
total time:  1.098599
win count:   41 9
spent time:  1.32368 1.224288
total time:  2.571978
win count:   42 9
spent time:  1.562823 4.004522
total time:  5.592316
win count:   43 9
spent time:  1.41618 1.313535
total time:  2.753839
win count:   44 9
spent time:  1.556674 4.005728
total time:  5.586807
win count:   45 9
spent time:  1.344378 1.231371
total time:  2.599793
win count:   46 9
spent time:  1.541677 3.89758
total time:  5.463425
win count:   47 9
spent time:  1.327198 1.217436
total time:  2.568187
win count:   48 9
spent time:  0.803509 2.135059
total time:  2.962194
win count:   49 9
spent time:  1.701505 3.290973
total time:  5.016558
win count:   50 9
spent time:  1.540018 3.94722
total time:  5.511322
win count:   51 9
spent time:  1.382702 1.234868
total time:  2.641463
win count:   52 9
spent time:  1.542632 3.90993
total time:  5.476658
win count:   53 9
spent time:  1.675679 3.263383
total time:  4.962523
win count:   54 9
spent time:  1.537963 3.898176
total time:  5.460443
win count:   55 9
spent time:  1.340601 1.273937
total time:  2.638485
win count:   56 9
spent time:  1.534878 3.921586
total time:  5.480553
win count:   57 9
spent time:  1.316399 1.208948
total time:  2.548576
win count:   58 9
spent time:  0.801819 2.108688
total time:  2.933846
win count:   59 9
spent time:  1.66788 3.25588
total time:  4.947332
win count:   60 9
spent time:  1.534045 3.908374
total time:  5.466042
win count:   61 9
spent time:  1.31337 1.206964
total time:  2.54353
win count:   62 9
spent time:  0.81211 2.140015
total time:  2.975458
win count:   63 9
spent time:  1.70788 3.434649
total time:  5.167137
win count:   64 9
spent time:  1.551471 4.055407
total time:  5.631787
win count:   65 9
spent time:  1.31274 1.202895
total time:  2.538823
win count:   66 9
spent time:  0.794706 2.105221
total time:  2.923251
win count:   67 9
spent time:  1.314512 1.2055
total time:  2.543254
win count:   68 9
spent time:  1.531401 3.875289
total time:  5.430464
win count:   69 9
spent time:  1.665317 3.255523
total time:  4.944361
win count:   70 9
spent time:  1.538753 3.87494
total time:  5.437479
win count:   71 9
spent time:  1.31287 1.203024
total time:  2.539079
win count:   72 9
spent time:  0.794025 2.098687
total time:  2.916088
win count:   73 9
spent time:  1.313779 1.202748
total time:  2.539735
win count:   73 10
spent time:  0.550675 0.511358
total time:  1.085264
win count:   74 10
spent time:  1.660054 3.246373
total time:  4.929683
win count:   75 10
spent time:  0.795076 2.098723
total time:  2.917156
win count:   76 10
spent time:  1.311499 1.202495
total time:  2.537176
win count:   77 10
spent time:  1.52858 3.87205
total time:  5.424298
win count:   78 10
spent time:  1.659835 3.23808
total time:  4.92124
win count:   79 10
spent time:  0.79437 2.102764
total time:  2.9205
win count:   80 10
spent time:  1.316634 1.208646
total time:  2.548541
win count:   80 11
spent time:  0.46105 0.427652
total time:  0.911885
win count:   81 11
spent time:  1.314471 1.202865
total time:  2.540559
win count:   81 12
spent time:  0.462161 0.428268
total time:  0.913612
win count:   82 12
spent time:  1.661473 3.234637
total time:  4.919407
win count:   83 12
spent time:  1.528976 3.869806
total time:  5.422425
win count:   84 12
spent time:  1.661764 3.240573
total time:  4.925632
win count:   84 13
spent time:  0.550334 0.510747
total time:  1.08431
win count:   85 13
spent time:  1.313721 1.202469
total time:  2.539362
win count:   85 14
spent time:  0.461571 0.428073
total time:  0.912835
win count:   86 14
spent time:  1.661946 3.240941
total time:  4.92615
ALLtotal time:  374.149954
