start fight
win count:   1 0
spent time:  1.642893 4.287834
total time:  5.95637
win count:   2 0
spent time:  0.72341 0.563291
total time:  1.311725
win count:   3 0
spent time:  1.650506 4.15465
total time:  5.831883
win count:   4 0
spent time:  0.691421 0.523874
total time:  1.239719
win count:   5 0
spent time:  1.608796 4.09391
total time:  5.727684
win count:   6 0
spent time:  0.691668 0.52448
total time:  1.24057
win count:   7 0
spent time:  0.476362 1.008649
total time:  1.509998
win count:   8 0
spent time:  0.692075 0.524276
total time:  1.240783
win count:   9 0
spent time:  0.839623 2.248694
total time:  3.113209
win count:   10 0
spent time:  0.696903 0.525227
total time:  1.246732
win count:   11 0
spent time:  1.631591 4.144732
total time:  5.801504
win count:   12 0
spent time:  0.693587 0.536266
total time:  1.254447
win count:   13 0
spent time:  0.840674 2.250185
total time:  3.115551
win count:   14 0
spent time:  0.780477 0.570925
total time:  1.378086
win count:   15 0
spent time:  0.554013 1.064273
total time:  1.644993
win count:   16 0
spent time:  0.703174 0.532167
total time:  1.260361
win count:   17 0
spent time:  0.850382 2.269179
total time:  3.144999
win count:   18 0
spent time:  0.703259 0.533587
total time:  1.261991
win count:   19 0
spent time:  0.715029 3.779701
total time:  4.520187
win count:   20 0
spent time:  0.704687 0.533333
total time:  1.263063
win count:   21 0
spent time:  1.630907 4.184194
total time:  5.840928
win count:   22 0
spent time:  0.702248 0.532217
total time:  1.259484
win count:   23 0
spent time:  1.643033 4.146765
total time:  5.815551
win count:   24 0
spent time:  0.702156 0.541639
total time:  1.269492
win count:   25 0
spent time:  0.711218 3.76495
total time:  4.501637
win count:   26 0
spent time:  0.705214 0.531897
total time:  1.262129
win count:   27 0
spent time:  0.490778 1.035482
total time:  1.552493
win count:   28 0
spent time:  0.729149 0.547973
total time:  1.303381
win count:   29 0
spent time:  0.483925 1.031449
total time:  1.541026
win count:   30 0
spent time:  0.699681 0.557817
total time:  1.282447
win count:   31 0
spent time:  1.623169 4.144786
total time:  5.793319
win count:   32 0
spent time:  0.698605 0.528092
total time:  1.251177
win count:   33 0
spent time:  1.635553 4.161435
total time:  5.822268
win count:   34 0
spent time:  0.698931 0.529006
total time:  1.25258
win count:   35 0
spent time:  1.583113 4.057107
total time:  5.665138
win count:   36 0
spent time:  0.679919 0.515007
total time:  1.219052
win count:   37 0
spent time:  0.471421 0.995085
total time:  1.491191
win count:   38 0
spent time:  0.690643 0.518498
total time:  1.233431
win count:   39 0
spent time:  1.58012 4.065782
total time:  5.670624
win count:   40 0
spent time:  0.687772 0.517534
total time:  1.229138
win count:   41 0
spent time:  0.827984 2.206949
total time:  3.059279
win count:   42 0
spent time:  0.685415 0.52049
total time:  1.230161
win count:   43 0
spent time:  0.836446 2.211045
total time:  3.07212
win count:   44 0
spent time:  0.68904 0.519631
total time:  1.232926
win count:   45 0
spent time:  1.589092 4.04382
total time:  5.657931
win count:   46 0
spent time:  0.697313 0.528588
total time:  1.250849
win count:   47 0
spent time:  1.602814 4.076409
total time:  5.704335
win count:   48 0
spent time:  0.690997 0.526222
total time:  1.241624
win count:   49 0
spent time:  0.70542 3.701216
total time:  4.431751
win count:   50 0
spent time:  0.676225 0.511845
total time:  1.211865
win count:   51 0
spent time:  1.599518 4.023548
total time:  5.64792
win count:   52 0
spent time:  0.685316 0.519449
total time:  1.229284
win count:   53 0
spent time:  0.829795 2.20993
total time:  3.064365
win count:   54 0
spent time:  0.67887 0.518463
total time:  1.221343
win count:   55 0
spent time:  0.467729 0.991593
total time:  1.484192
win count:   56 0
spent time:  0.683627 0.516114
total time:  1.223962
win count:   57 0
spent time:  1.613769 4.078038
total time:  5.716672
win count:   58 0
spent time:  0.696407 0.527446
total time:  1.248791
win count:   59 0
spent time:  0.804414 2.140373
total time:  2.968561
win count:   60 0
spent time:  0.660735 0.501208
total time:  1.185182
win count:   61 0
spent time:  0.670129 3.557315
total time:  4.251103
win count:   62 0
spent time:  0.661339 0.501367
total time:  1.186174
win count:   63 0
spent time:  0.455225 0.964495
total time:  1.443646
win count:   64 0
spent time:  0.66053 0.500664
total time:  1.184613
win count:   65 0
spent time:  1.550656 3.966925
total time:  5.541626
win count:   66 0
spent time:  0.660498 0.500992
total time:  1.184788
win count:   67 0
spent time:  1.550911 3.934217
total time:  5.509431
win count:   68 0
spent time:  0.669124 0.506321
total time:  1.199069
win count:   69 0
spent time:  1.55551 4.031915
total time:  5.611881
win count:   70 0
spent time:  0.665958 0.504171
total time:  1.193497
win count:   71 0
spent time:  1.553508 4.045846
total time:  5.624127
win count:   72 0
spent time:  0.664676 0.501668
total time:  1.189636
win count:   73 0
spent time:  1.553849 3.92749
total time:  5.505577
win count:   74 0
spent time:  0.666702 0.505707
total time:  1.196118
win count:   75 0
spent time:  0.678173 3.606651
total time:  4.309088
win count:   76 0
spent time:  0.665205 0.503875
total time:  1.192652
win count:   77 0
spent time:  0.671239 3.571057
total time:  4.26596
win count:   78 0
spent time:  0.661833 0.500783
total time:  1.185878
win count:   79 0
spent time:  0.69578 3.61318
total time:  4.333169
win count:   80 0
spent time:  0.775153 0.58609
total time:  1.388963
win count:   81 0
spent time:  1.624441 3.9968
total time:  5.648229
win count:   82 0
spent time:  0.666214 0.504788
total time:  1.194666
win count:   83 0
spent time:  0.682099 3.608951
total time:  4.315141
win count:   84 0
spent time:  0.672565 0.509676
total time:  1.206135
win count:   85 0
spent time:  0.675526 3.585938
total time:  4.285484
win count:   86 0
spent time:  0.666358 0.508074
total time:  1.198386
win count:   87 0
spent time:  0.705012 3.810927
total time:  4.540566
win count:   88 0
spent time:  0.695794 0.522182
total time:  1.243244
win count:   89 0
spent time:  0.806367 2.184952
total time:  3.015335
win count:   90 0
spent time:  0.692687 0.51479
total time:  1.230879
win count:   91 0
spent time:  1.560723 4.016848
total time:  5.602918
win count:   92 0
spent time:  0.667681 0.503723
total time:  1.194922
win count:   93 0
spent time:  0.815451 2.175919
total time:  3.015872
win count:   94 0
spent time:  0.674871 0.508612
total time:  1.207822
win count:   95 0
spent time:  1.563594 3.940297
total time:  5.52816
win count:   96 0
spent time:  0.673767 0.507529
total time:  1.205335
win count:   97 0
spent time:  0.463658 0.982032
total time:  1.470187
win count:   98 0
spent time:  0.673954 0.509793
total time:  1.207789
win count:   99 0
spent time:  1.579752 4.072356
total time:  5.676584
win count:   100 0
spent time:  0.659577 0.499856
total time:  1.182781
ALLtotal time:  276.071254
